미국 대통령 연설문 텍스트 데이터 분석 (1)
…
A2_2 %>%
  mutate(rown = row_number()) %>% arrange(desc(rown)) %>%
  rename("president" = ...1, "totalwords" = ...2, "I" = ...3, "we" = ...4, "you" = ...5, "he/she" = ...6,          "they" = ...7)

## # A tibble: 41 x 8
##    president         totalwords     I    we   you `he/she`  they  rown
##    <fct>                  <dbl> <dbl> <dbl> <dbl>    <dbl> <dbl> <int>
##  1 George Washington       2082 1.04   1.25  0.83     0.17  1.18    41
##  2 John Adams              1789 0.9    1.81  0.56     0.31  1.16    40
##  3 Thomas Jefferson        2584 0.47   2.4   0.53     0.2   1.77    39
##  4 James Madison           2711 0.34   1.38  0.17     0.51  0.98    38
##  5 James Monroe            5290 0.32   1.25  0.12     0.36  1.19    37
##  6 John Quincy Adams       7774 0.18   1.15  0.1      0.32  1.28    36
##  7 Andrew Jackson         11273 0.84   1.32  0.27     0.37  1.11    35
##  8 Martin van Buren       11365 0.56   0.83  0.23     0.16  1.34    34
##  9 John Tyler              8517 0.570  0.73  0.32     0.45  0.75    33
## 10 James K. Polk          18054 0.39   1.28  0.12     0.84  1.25    32
## # ... with 31 more rows
…
